Time,RINe,28S/18S(Area),Concentration,FU,28S-Concentration,18S-Concentration,Replicate,Temperature,mRNA_FU,mRNA_conc,Donor,DV200
0,5,4.3,7670,4800,3530,829,1,21,288,222,A,97.78
0,5.7,5.6,4750,7280,4750,853,2,21,250,194,A,98.61
0,4.7,5.3,2770,1640,1120,211,3,21,145,113,A,95.85
0,4.9,2.4,2500,1000,615,252,4,21,192,140,A,95.36
0,5.1,3.7,4170,1900,1380,369,5,21,240,172,A,95.99
1.5,5.2,5.3,3270,2350,1270,294,1,21,128,97.3,A,96.97
1.5,,,,,,,2,21,,,A,
1.5,4.6,3.4,8800,5030,3600,1070,3,21,328,266,A,97.69
1.5,4.9,6.5,32700,27050,16400,2510,4,21,640,540,A,97.67
1.5,5.3,6.7,9020,7900,4540,680,5,21,166,122,A,98.36
3,3.2,4.9,20500,14900,9910,2010,1,21,1300,1210,A,94.82
3,4.2,2.5,3400,1050,889,349,2,21,277,228,A,95.55
3,4.7,3.1,5750,3160,2800,898,3,21,306,240,A,96.89
3,4.2,7.6,19200,17100,12500,1640,4,21,620,501,A,97.48
3,4.5,9.2,28200,23400,19200,2090,5,21,700,560,A,98.3
6,2.9,NA,12200,11400,3590,,1,21,690,540,A,96.84
6,3.1,7.9,4930,4875,2810,358,2,21,245,189,A,96.74
6,3.4,9.3,3760,2600,1860,199,3,21,236,184,A,96.16
6,3.5,17.5,18400,20850,13400,766,4,21,396,307,A,98.62
6,3.5,4.8,4490,3350,2280,479,5,21,284,216,A,96.52
9,4.1,13.1,26300,30800,18800,1440,1,21,555,389,A,98.34
9,3.9,3.7,15000,12000,8310,2220,2,21,740,500,A,97.59
9,4.5,2.9,4770,3000,1820,621,3,21,310,229,A,96.74
9,4.2,3.9,20500,16100,12000,3040,4,21,875,607,A,98.06
9,4.1,2.6,11000,8850,4420,1670,5,21,685,486,A,96.78
24,3.2,NA,19700,27500,15000,0,1,21,465,355,A,97.63
24,2.5,NA,264,150,92.7,0,2,21,,,A,89.64
24,3,NA,5620,4700,2000,0,3,21,236,1070,A,97.96
24,3.1,NA,10600,8900,7050,0,4,21,315,1660,A,97.89
24,2.8,NA,2120,1540,1070,0,5,21,140,113,A,94.33
48,2.2,NA,397,NA,NA,0,1,21,58,55.7,A,80.37
48,2.5,NA,252,60,41.6,0,2,21,28,27.7,A,77.04
48,2.6,NA,681,300,226,0,3,21,60,57.6,A,88.8
48,2.1,NA,178,25,15.2,0,4,21,24,26.8,A,69.25
48,2,NA,258,50,22.9,0,5,21,33,35.8,A,76.45
72,1.6,NA,211,25,NA,2.1,1,21,42,42.3,A,64.92
72,2.5,NA,370,140,103,0,2,21,35,35.2,A,82.96
72,1.9,NA,175,NA,NA,0,3,21,25,28.1,A,66.51
72,1.8,NA,238,NA,NA,0,4,21,45,45,A,71.89
72,2.2,NA,368,100,78.4,0,5,21,46,45.4,A,81.57
96,2.6,NA,1100,535,430,0,1,21,92,86.4,A,92.46
96,2.7,NA,2170,1440,1110,0,2,21,126,122,A,95.6
96,2.3,NA,1230,790,528,0,3,21,123,122,A,91.64
96,2,NA,351,60,39.9,0,4,21,62,61.5,A,78.53
96,2.7,NA,758,290,235,0,5,21,68,62,A,90.99
168,2.7,NA,3460,800,113,0,1,21,220,242,A,92.41
168,1.7,NA,1650,1210,82.5,0,2,21,55,12.7,A,7.19
168,2.5,NA,1410,400,55.5,0,3,21,165,173,A,85.81
168,2.7,NA,850,430,63,0,4,21,55,55.6,A,90.6
168,2.3,NA,311,360,48.4,0,5,21,36,38.6,A,75.36
0,5.4,7,2510,2215,1540,218,1,21,83,74.8,B,96.64
0,5.3,3,2330,1025,660,220,2,21,144,114,B,96.1
0,7.1,2.1,1750,1045,443,216,3,21,80,64.8,B,96.06
0,5.4,4.6,4400,2825,1830,394,4,21,190,164,B,97.34
0,6.6,3.2,2780,1780,1140,356,5,21,80,70.9,B,97.37
1.5,6,3.1,1390,706,547,175,1,21,110,90.6,B,94.38
1.5,5.3,4.3,3290,2410,1480,347,2,21,133,116,B,96.97
1.5,5,3.6,2140,1200,1060,296,3,21,104,91,B,96.54
1.5,5.1,4.7,4750,3500,2160,460,4,21,153,127,B,98.22
1.5,5.3,3.5,6070,4825,2590,736,5,21,167,143,B,97.86
3,5.3,1.8,2610,1078,521,292,1,21,182,172,B,94.72
3,5.2,2.9,1220,480,502,173,2,21,75,56.8,B,95.79
3,4.8,3.3,2060,1220,775,232,3,21,100,83,B,96.93
3,5.6,3,4190,2640,1660,549,4,21,150,115,B,97.99
3,6.4,2.9,2620,1740,1060,370,5,21,76,62.3,B,97.57
6,4.9,3.5,2120,955,716,203,1,21,103,99,B,95.51
6,5.2,5.6,3150,1800,1350,242,2,21,92,90.8,B,97.24
6,4.9,4.2,4030,2558,1700,407,3,21,174,163,B,96.58
6,5.1,4.1,2370,1120,866,212,4,21,105,108,B,96.01
6,3.6,2.8,819,300,173,61.8,5,21,42,49.3,B,91.73
9,3.4,6.7,8190,5200,4680,701,1,21,294,335,B,97.09
9,4.1,2.6,1990,610,529,202,2,21,142,136,B,95.31
9,3.4,5.4,7040,4680,4090,756,3,21,264,288,B,96.87
9,4.4,9.8,3300,2400,1930,196,4,21,114,105,B,97.26
9,4.7,4.7,2170,1180,1140,242,5,21,100,103,B,95.91
24,2.1,,222,,,,1,21,,,B,75.42
24,5,8.4,5020,3992,3390,402,2,21,98,87.1,B,98.64
24,4.8,5.1,6690,4980,3130,617,3,21,170,152,B,98.58
24,5.1,3.6,1950,842,692,194,4,21,102,95.3,B,96.51
24,4.1,4.7,812,352,369,78.3,5,21,38,39.6,B,93.75
36,1.6,,356,,,0,1,21,103,79.9,B,37.47
36,2.1,,270,35,8.68,0,2,21,37,42.2,B,72.37
36,2.1,,285,10,1.67,0,3,21,47,49.1,B,74.58
36,2,,343,63,53.6,0,4,21,48,55.1,B,78.55
36,2.1,,327,48,38.9,0,5,21,48,52.6,B,77.32
48,2.2,,263,45,30.6,0,1,21,30,34.8,B,73.04
48,2.2,,441,70,55.6,0,2,21,69,69.4,B,82.8
48,2.4,,1040,565,433,0,3,21,88,94.1,B,91.67
48,2.2,,509,154,122,0,4,21,61,69.5,B,82.3
48,2.6,,1150,725,546,0,5,21,78,79.4,B,93.33
72,2,,104,,,0,1,21,16,17.4,B,66.61
72,2.3,,418,120,107,0,2,21,41,44.4,B,83.94
72,2.1,,174,,,0,3,21,26,28.6,B,68.95
72,2.5,,614,360,285,0,4,21,44,44.3,B,90.17
72,2.4,,472,267,215,0,5,21,35,34.6,B,90.01
96,2.1,,237,,,0,1,21,34,34.6,B,74.91
96,2.1,,236,27,6.82,0,2,21,34,35.8,B,75.95
96,2.5,,792,232,194,0,3,21,78,72.8,B,88.73
96,2.2,,382,63,49.9,0,4,21,48,49.8,B,82.54
96,2.2,,333,56,43.6,0,5,21,40,43.2,B,77.23
